v -0.091991 -0.291312 -0.159334
v 0.091991 -0.291312 -0.159334
v -0.183983 -0.291312 0
v -0.091991 -0.291312 0.159335
v 0.091991 -0.291312 0.159335
v 0.183983 -0.291312 0
v -0.125 -0.411835 -0.216506
v 0.125 -0.411835 -0.216506
v -0.25 -0.411835 0
v -0.125 -0.411835 0.216506
v 0.125 -0.411835 0.216506
v 0.25 -0.411835 0
v 0.125 -0.5 -0.216506
v -0.125 -0.5 -0.216506
v -0.25 -0.5 0
v -0.125 -0.5 0.216506
v 0.125 -0.5 0.216506
v 0.25 -0.5 0
v -0.044269 0.159562 -0.076676
v 0.044269 0.159562 -0.076676
v -0.088537 0.159562 0
v -0.044269 0.159562 0.076676
v 0.044269 0.159562 0.076676
v 0.088537 0.159562 0
v -0.105 0.181818 -0.181865
v 0.105 0.181818 -0.181865
v -0.21 0.181818 0
v -0.105 0.181818 0.181865
v 0.105 0.181818 0.181865
v 0.21 0.181818 0
v -0.0567 0.21648 -0.098208
v 0.0567 0.21648 -0.098208
v -0.1134 0.21648 0
v -0.0567 0.21648 0.098206
v 0.0567 0.21648 0.098208
v 0.1134 0.21648 0
v -0.063438 0.34664 -0.109879
v 0.063438 0.34664 -0.109879
v -0.126877 0.34664 0
v -0.063438 0.34664 0.109879
v 0.063438 0.34664 0.109879
v 0.126877 0.34664 0
v -0.106711 0.538577 -0.184828
v 0.106711 0.538577 -0.184828
v -0.213421 0.538577 0
v -0.106711 0.538577 0.184828
v 0.106711 0.538577 0.184828
v 0.213421 0.538577 0
v -0.09621 0.553343 -0.166639
v 0.09621 0.553343 -0.166639
v -0.192419 0.553343 0
v -0.09621 0.553343 0.16664
v 0.09621 0.553343 0.16664
v 0.192419 0.553343 0
v -0.047002 0.508936 -0.081409
v 0.047002 0.508936 -0.081409
v -0.094003 0.508936 0
v -0.047002 0.508936 0.081409
v 0.047002 0.508936 0.081409
v 0.094003 0.508936 0
v 0 0.636894 0
v 0.091991 -0.291312 -0.159334
v 0.125 -0.411835 -0.216506
v 0.125 -0.411835 -0.216506
v 0.125 -0.411835 -0.216506
v -0.125 -0.411835 -0.216506
v -0.125 -0.411835 -0.216506
v -0.125 -0.411835 -0.216506
v -0.091991 -0.291312 -0.159334
v -0.25 -0.411835 0
v -0.25 -0.411835 0
v -0.25 -0.411835 0
v -0.183983 -0.291312 0
v -0.125 -0.411835 0.216506
v -0.125 -0.411835 0.216506
v -0.125 -0.411835 0.216506
v -0.091991 -0.291312 0.159335
v 0.125 -0.411835 0.216506
v 0.125 -0.411835 0.216506
v 0.125 -0.411835 0.216506
v 0.091991 -0.291312 0.159335
v 0.25 -0.411835 0
v 0.25 -0.411835 0
v 0.25 -0.411835 0
v 0.183983 -0.291312 0
v 0.125 -0.5 -0.216506
v 0.125 -0.5 -0.216506
v -0.125 -0.5 -0.216506
v -0.125 -0.5 -0.216506
v -0.25 -0.5 0
v -0.25 -0.5 0
v -0.25 -0.5 0
v -0.125 -0.5 0.216506
v -0.125 -0.5 0.216506
v 0.125 -0.5 0.216506
v 0.125 -0.5 0.216506
v 0.25 -0.5 0
v 0.25 -0.5 0
v 0.25 -0.5 0
v -0.044269 0.159562 -0.076676
v -0.044269 0.159562 -0.076676
v -0.044269 0.159562 -0.076676
v 0.044269 0.159562 -0.076676
v 0.044269 0.159562 -0.076676
v 0.044269 0.159562 -0.076676
v -0.088537 0.159562 0
v -0.088537 0.159562 0
v -0.088537 0.159562 0
v -0.044269 0.159562 0.076676
v -0.044269 0.159562 0.076676
v -0.044269 0.159562 0.076676
v 0.044269 0.159562 0.076676
v 0.044269 0.159562 0.076676
v 0.044269 0.159562 0.076676
v 0.088537 0.159562 0
v 0.088537 0.159562 0
v 0.088537 0.159562 0
v -0.105 0.181818 -0.181865
v -0.105 0.181818 -0.181865
v -0.105 0.181818 -0.181865
v 0.105 0.181818 -0.181865
v 0.105 0.181818 -0.181865
v 0.105 0.181818 -0.181865
v -0.21 0.181818 0
v -0.21 0.181818 0
v -0.21 0.181818 0
v -0.105 0.181818 0.181865
v -0.105 0.181818 0.181865
v -0.105 0.181818 0.181865
v 0.105 0.181818 0.181865
v 0.105 0.181818 0.181865
v 0.105 0.181818 0.181865
v 0.21 0.181818 0
v 0.21 0.181818 0
v 0.21 0.181818 0
v -0.0567 0.21648 -0.098208
v -0.0567 0.21648 -0.098208
v -0.0567 0.21648 -0.098208
v 0.0567 0.21648 -0.098208
v 0.0567 0.21648 -0.098208
v 0.0567 0.21648 -0.098208
v -0.1134 0.21648 0
v -0.1134 0.21648 0
v -0.1134 0.21648 0
v -0.0567 0.21648 0.098206
v -0.0567 0.21648 0.098206
v -0.0567 0.21648 0.098206
v 0.0567 0.21648 0.098208
v 0.0567 0.21648 0.098208
v 0.0567 0.21648 0.098208
v 0.1134 0.21648 0
v 0.1134 0.21648 0
v 0.1134 0.21648 0
v -0.063438 0.34664 -0.109879
v 0.063438 0.34664 -0.109879
v -0.126877 0.34664 0
v -0.063438 0.34664 0.109879
v 0.063438 0.34664 0.109879
v 0.126877 0.34664 0
v -0.106711 0.538577 -0.184828
v -0.106711 0.538577 -0.184828
v -0.106711 0.538577 -0.184828
v 0.106711 0.538577 -0.184828
v 0.106711 0.538577 -0.184828
v 0.106711 0.538577 -0.184828
v -0.213421 0.538577 0
v -0.213421 0.538577 0
v -0.213421 0.538577 0
v -0.106711 0.538577 0.184828
v -0.106711 0.538577 0.184828
v -0.106711 0.538577 0.184828
v 0.106711 0.538577 0.184828
v 0.106711 0.538577 0.184828
v 0.106711 0.538577 0.184828
v 0.213421 0.538577 0
v 0.213421 0.538577 0
v 0.213421 0.538577 0
v -0.09621 0.553343 -0.166639
v -0.09621 0.553343 -0.166639
v -0.09621 0.553343 -0.166639
v 0.09621 0.553343 -0.166639
v 0.09621 0.553343 -0.166639
v 0.09621 0.553343 -0.166639
v -0.192419 0.553343 0
v -0.192419 0.553343 0
v -0.192419 0.553343 0
v -0.09621 0.553343 0.16664
v -0.09621 0.553343 0.16664
v -0.09621 0.553343 0.16664
v 0.09621 0.553343 0.16664
v 0.09621 0.553343 0.16664
v 0.09621 0.553343 0.16664
v 0.192419 0.553343 0
v 0.192419 0.553343 0
v 0.192419 0.553343 0
v -0.047002 0.508936 -0.081409
v -0.047002 0.508936 -0.081409
v -0.047002 0.508936 -0.081409
v 0.047002 0.508936 -0.081409
v 0.047002 0.508936 -0.081409
v 0.047002 0.508936 -0.081409
v -0.094003 0.508936 0
v -0.094003 0.508936 0
v -0.094003 0.508936 0
v -0.047002 0.508936 0.081409
v -0.047002 0.508936 0.081409
v -0.047002 0.508936 0.081409
v 0.047002 0.508936 0.081409
v 0.047002 0.508936 0.081409
v 0.047002 0.508936 0.081409
v 0.094003 0.508936 0
v 0.094003 0.508936 0
v 0.094003 0.508936 0
v 0 0.636894 0
v 0 0.636894 0
v 0 0.636894 0
v 0 0.636894 0
v 0 0.636894 0
vt 1.973814 0.76791
vt 1.648764 0.76791
vt 1.648764 0.631102
vt 1.973814 0.631102
vt 0.348568 0.76791
vt 0.02352 0.76791
vt 0.02352 0.631102
vt 0.348568 0.631102
vt 0.673618 0.76791
vt 0.348568 0.76791
vt 0.348568 0.631102
vt 0.673618 0.631102
vt 0.998666 0.76791
vt 0.673618 0.76791
vt 0.673618 0.631102
vt 0.998666 0.631102
vt 1.323716 0.76791
vt 0.998666 0.76791
vt 0.998666 0.631102
vt 1.323716 0.631102
vt 1.648764 0.76791
vt 1.323716 0.76791
vt 1.323716 0.631102
vt 1.648764 0.631102
vt 1.973814 0.631102
vt 1.648764 0.631102
vt 1.648764 0.531026
vt 1.973814 0.531026
vt 0.348568 0.631102
vt 0.02352 0.631102
vt 0.02352 0.531026
vt 0.348568 0.531026
vt 0.673618 0.631102
vt 0.348568 0.631102
vt 0.348568 0.531026
vt 0.673618 0.531026
vt 0.998666 0.631102
vt 0.673618 0.631102
vt 0.673618 0.531026
vt 0.998666 0.531026
vt 1.323716 0.631102
vt 0.998666 0.631102
vt 0.998666 0.531026
vt 1.323716 0.531026
vt 1.648764 0.631102
vt 1.323716 0.631102
vt 1.323716 0.531026
vt 1.648764 0.531026
vt 1.428272 0.266726
vt 1.975318 0.266726
vt 1.838558 0.503604
vt 1.565034 0.503604
vt 1.838558 0.029848
vt 1.975318 0.266726
vt 1.428272 0.266726
vt 1.565034 0.029848
vt 1.973814 1.279704
vt 1.648764 1.279704
vt 0.348568 1.279704
vt 0.02352 1.279704
vt 0.673618 1.279704
vt 0.348568 1.279704
vt 0.998666 1.279704
vt 0.673618 1.279704
vt 1.323716 1.279704
vt 0.998666 1.279704
vt 1.648764 1.279704
vt 1.323716 1.279704
vt 1.648764 1.279704
vt 1.973814 1.279704
vt 1.973814 1.417944
vt 1.648764 1.417944
vt 0.02352 1.279704
vt 0.348568 1.279704
vt 0.348568 1.417944
vt 0.02352 1.417944
vt 0.348568 1.279704
vt 0.673618 1.279704
vt 0.673618 1.417944
vt 0.348568 1.417944
vt 0.673618 1.279704
vt 0.998666 1.279704
vt 0.998666 1.417944
vt 0.673618 1.417944
vt 0.998666 1.279704
vt 1.323716 1.279704
vt 1.323716 1.417944
vt 0.998666 1.417944
vt 1.323716 1.279704
vt 1.648764 1.279704
vt 1.648764 1.417944
vt 1.323716 1.417944
vt 1.648764 1.417944
vt 1.973814 1.417944
vt 1.973814 1.554126
vt 1.648764 1.554126
vt 0.02352 1.417944
vt 0.348568 1.417944
vt 0.348568 1.554126
vt 0.02352 1.554126
vt 0.348568 1.417944
vt 0.673618 1.417944
vt 0.673618 1.554126
vt 0.348568 1.554126
vt 0.673618 1.417944
vt 0.998666 1.417944
vt 0.998666 1.554126
vt 0.673618 1.554126
vt 0.998666 1.417944
vt 1.323716 1.417944
vt 1.323716 1.554126
vt 0.998666 1.554126
vt 1.323716 1.417944
vt 1.648764 1.417944
vt 1.648764 1.554126
vt 1.323716 1.554126
vt 1.648764 1.554126
vt 1.973814 1.554126
vt 1.973814 1.70187
vt 1.648764 1.70187
vt 0.02352 1.554126
vt 0.348568 1.554126
vt 0.348568 1.70187
vt 0.02352 1.70187
vt 0.348568 1.554126
vt 0.673618 1.554126
vt 0.673618 1.70187
vt 0.348568 1.70187
vt 0.673618 1.554126
vt 0.998666 1.554126
vt 0.998666 1.70187
vt 0.673618 1.70187
vt 0.998666 1.554126
vt 1.323716 1.554126
vt 1.323716 1.70187
vt 0.998666 1.70187
vt 1.323716 1.554126
vt 1.648764 1.554126
vt 1.648764 1.70187
vt 1.323716 1.70187
vt 1.973814 1.919744
vt 1.648764 1.919744
vt 0.348568 1.919744
vt 0.02352 1.919744
vt 0.673618 1.919744
vt 0.348568 1.919744
vt 0.998666 1.919744
vt 0.673618 1.919744
vt 1.323716 1.919744
vt 0.998666 1.919744
vt 1.648764 1.919744
vt 1.323716 1.919744
vt 1.648764 1.919744
vt 1.973814 1.919744
vt 1.973814 1.967492
vt 1.648764 1.967492
vt 0.02352 1.919744
vt 0.348568 1.919744
vt 0.348568 1.967492
vt 0.02352 1.967492
vt 0.348568 1.919744
vt 0.673618 1.919744
vt 0.673618 1.967492
vt 0.348568 1.967492
vt 0.673618 1.919744
vt 0.998666 1.919744
vt 0.998666 1.967492
vt 0.673618 1.967492
vt 0.998666 1.919744
vt 1.323716 1.919744
vt 1.323716 1.967492
vt 0.998666 1.967492
vt 1.323716 1.919744
vt 1.648764 1.919744
vt 1.648764 1.967492
vt 1.323716 1.967492
vt 0.457492 0.493408
vt 0.190994 0.493408
vt 0.269008 0.356764
vt 0.38514 0.35869
vt 0.190994 0.493408
vt 0.029206 0.254356
vt 0.20837 0.257266
vt 0.269008 0.356764
vt 0.029206 0.254356
vt 0.198588 0.019626
vt 0.272698 0.15976
vt 0.20837 0.257266
vt 0.198588 0.019626
vt 0.468248 0.027616
vt 0.389676 0.162462
vt 0.272698 0.15976
vt 0.468248 0.027616
vt 0.619486 0.265406
vt 0.448932 0.26352
vt 0.389676 0.162462
vt 0.619486 0.265406
vt 0.457492 0.493408
vt 0.38514 0.35869
vt 0.448932 0.26352
vt 0.38514 0.35869
vt 0.269008 0.356764
vt 0.32897 0.259744
vt 0.269008 0.356764
vt 0.20837 0.257266
vt 0.32897 0.259744
vt 0.20837 0.257266
vt 0.272698 0.15976
vt 0.32897 0.259744
vt 0.272698 0.15976
vt 0.389676 0.162462
vt 0.32897 0.259744
vt 0.389676 0.162462
vt 0.448932 0.26352
vt 0.32897 0.259744
vt 0.448932 0.26352
vt 0.38514 0.35869
vt 0.32897 0.259744
vn 0 0.3203 -0.9473
vn 0 0.4286 -0.9035
vn -0.8204 0.3203 -0.4736
vn -0.7824 0.4286 -0.4517
vn -0.8204 0.3203 0.4736
vn -0.7824 0.4286 0.4517
vn 0 0.3203 0.9473
vn 0 0.4286 0.9035
vn 0.8204 0.3203 0.4736
vn 0.7824 0.4286 0.4517
vn 0.8204 0.3203 -0.4736
vn 0.7824 0.4286 -0.4517
vn 0 0 -1
vn -0.866 0 -0.5
vn -0.866 0 0.5
vn 0 0 1
vn 0.866 0 0.5
vn 0.866 0 -0.5
vn 0 -1 0
vn 0 0.1803 -0.9836
vn -0.8518 0.1803 -0.4918
vn -0.8518 0.1803 0.4918
vn 0 0.1803 0.9836
vn 0.8518 0.1803 0.4918
vn 0.8518 0.1803 -0.4918
vn 0 -0.9783 -0.207
vn -0.1793 -0.9783 -0.1035
vn -0.1793 -0.9783 0.1035
vn 0 -0.9783 0.207
vn 0.1793 -0.9783 0.1035
vn 0.1793 -0.9783 -0.1035
vn 0 0.9238 -0.3828
vn -0.3315 0.9238 -0.1914
vn -0.3315 0.9238 0.1914
vn 0 0.9238 0.3828
vn 0.3315 0.9238 0.1914
vn 0.3315 0.9238 -0.1914
vn 0 -0.0893 -0.996
vn 0 -0.2397 -0.9709
vn -0.8625 -0.0893 -0.498
vn -0.8408 -0.2397 -0.4854
vn -0.8625 -0.0893 0.498
vn -0.8408 -0.2397 0.4854
vn 0 -0.0893 0.996
vn 0 -0.2397 0.9709
vn 0.8625 -0.0893 0.498
vn 0.8408 -0.2397 0.4854
vn 0.8625 -0.0893 -0.498
vn 0.8408 -0.2397 -0.4854
vn 0 -0.3637 -0.9315
vn -0.8067 -0.3637 -0.4657
vn -0.8067 -0.3637 0.4657
vn 0 -0.3637 0.9315
vn 0.8067 -0.3637 0.4657
vn 0.8067 -0.3637 -0.4657
vn 0 0.7764 -0.6302
vn -0.5458 0.7764 -0.3151
vn -0.5458 0.7764 0.3151
vn 0 0.7764 0.6302
vn 0.5458 0.7764 0.3151
vn 0.5458 0.7764 -0.3151
vn 0 0.8868 0.4621
vn 0.4002 0.8868 0.231
vn 0.4002 0.8868 -0.231
vn 0 0.8868 -0.4621
vn -0.4002 0.8868 -0.231
vn -0.4002 0.8868 0.231
vn 0 0.5368 -0.8437
vn -0.7307 0.5368 -0.4219
vn -0.7307 0.5368 0.4219
vn 0 0.5368 0.8437
vn 0.7307 0.5368 0.4219
vn 0.7307 0.5368 -0.4219
s 1
f 69/1/1 62/2/1 63/3/2 66/4/2
f 73/5/3 1/6/3 67/7/4 70/8/4
f 77/9/5 3/10/5 71/11/6 74/12/6
f 81/13/7 4/14/7 75/15/8 78/16/8
f 85/17/9 5/18/9 79/19/10 82/20/10
f 2/21/11 6/22/11 83/23/12 64/24/12
f 68/25/13 65/26/13 86/27/13 88/28/13
f 72/29/14 7/30/14 89/31/14 90/32/14
f 76/33/15 9/34/15 91/35/15 93/36/15
f 80/37/16 10/38/16 94/39/16 95/40/16
f 84/41/17 11/42/17 96/43/17 97/44/17
f 8/45/18 12/46/18 98/47/18 87/48/18
f 92/49/19 99/50/19 17/51/19 16/52/19
f 13/53/19 18/54/19 15/55/19 14/56/19
f 62/2/1 69/1/1 100/57/20 103/58/20
f 1/6/3 73/5/3 106/59/21 101/60/21
f 3/10/5 77/9/5 109/61/22 107/62/22
f 4/14/7 81/13/7 112/63/23 110/64/23
f 5/18/9 85/17/9 115/65/24 113/66/24
f 6/22/11 2/21/11 104/67/25 116/68/25
f 105/69/26 102/70/26 118/71/26 121/72/26
f 19/73/27 108/74/27 124/75/27 119/76/27
f 21/77/28 111/78/28 127/79/28 125/80/28
f 22/81/29 114/82/29 130/83/29 128/84/29
f 23/85/30 117/86/30 133/87/30 131/88/30
f 24/89/31 20/90/31 122/91/31 134/92/31
f 123/93/32 120/94/32 136/95/32 139/96/32
f 25/97/33 126/98/33 142/99/33 137/100/33
f 27/101/34 129/102/34 145/103/34 143/104/34
f 28/105/35 132/106/35 148/107/35 146/108/35
f 29/109/36 135/110/36 151/111/36 149/112/36
f 30/113/37 26/114/37 140/115/37 152/116/37
f 141/117/38 138/118/38 154/119/39 155/120/39
f 31/121/40 144/122/40 156/123/41 37/124/41
f 33/125/42 147/126/42 157/127/43 39/128/43
f 34/129/44 150/130/44 158/131/45 40/132/45
f 35/133/46 153/134/46 159/135/47 41/136/47
f 36/137/48 32/138/48 38/139/49 42/140/49
f 155/120/39 154/119/39 160/141/50 163/142/50
f 37/124/41 156/123/41 166/143/51 161/144/51
f 39/128/43 157/127/43 169/145/52 167/146/52
f 40/132/45 158/131/45 172/147/53 170/148/53
f 41/136/47 159/135/47 175/149/54 173/150/54
f 42/140/49 38/139/49 164/151/55 176/152/55
f 165/153/56 162/154/56 178/155/56 181/156/56
f 43/157/57 168/158/57 184/159/57 179/160/57
f 45/161/58 171/162/58 187/163/58 185/164/58
f 46/165/59 174/166/59 190/167/59 188/168/59
f 47/169/60 177/170/60 193/171/60 191/172/60
f 48/173/61 44/174/61 182/175/61 194/176/61
f 183/177/62 180/178/62 196/179/62 199/180/62
f 49/181/63 186/182/63 202/183/63 197/184/63
f 51/185/64 189/186/64 205/187/64 203/188/64
f 52/189/65 192/190/65 208/191/65 206/192/65
f 53/193/66 195/194/66 211/195/66 209/196/66
f 54/197/67 50/198/67 200/199/67 212/200/67
f 201/201/68 198/202/68 218/203/68
f 55/204/69 204/205/69 217/206/69
f 57/207/70 207/208/70 216/209/70
f 58/210/71 210/211/71 214/212/71
f 59/213/72 213/214/72 215/215/72
f 60/216/73 56/217/73 61/218/73
